[{
  "field": "username",
  "method": "isEmpty",
  "args": [{"ignore_whitespace": true}],
  "validWhen": false,
  "message": "err-2001"
},
{
  "field": "username",
  "method": "isLength",
  "args": [{"max": 30}],
  "validWhen": true,
  "message": "err-2002"
},
{
  "field": "channel",
  "method": "isEmpty",
  "args": [{"ignore_whitespace": true}],
  "validWhen": false,
  "message": "err-2001"
},
{
  "field": "hook_url",
  "method": "isEmpty",
  "args": [{"ignore_whitespace": true}],
  "validWhen": false,
  "message": "err-2001"
}]